@startuml

package exception <<Frame>> {

  class LoginException {
    +message: String
    +cause: Throwable
  }

  class ParseException {
    +message: String
    +cause: Throwable
  }

  class PasteException {
    +message: String,
    +cause: Throwable
  }

  class PostException {
    +message: String,
    +cause: Throwable
  }

  class PastebinError {
    +request: String
    +code: HttpStatusCode
    +message: String
    +cause: Throwable
  }
}

hide empty members

@enduml
